# Blender 4.1.1
# www.blender.org
mtllib smetana.mtl
o Cylinder
v 0.000000 -1.000000 -0.771651
v 0.000000 1.898601 -1.000000
v 0.150542 -1.000000 -0.756823
v 0.195090 1.898601 -0.980785
v 0.295298 -1.000000 -0.712912
v 0.382683 1.898601 -0.923880
v 0.428706 -1.000000 -0.641604
v 0.555570 1.898601 -0.831470
v 0.545639 -1.000000 -0.545639
v 0.707107 1.898601 -0.707107
v 0.641604 -1.000000 -0.428706
v 0.831470 1.898601 -0.555570
v 0.712912 -1.000000 -0.295298
v 0.923880 1.898601 -0.382683
v 0.756823 -1.000000 -0.150542
v 0.980785 1.898601 -0.195090
v 0.771651 -1.000000 -0.000000
v 1.000000 1.898601 0.000000
v 0.756823 -1.000000 0.150542
v 0.980785 1.898601 0.195090
v 0.712912 -1.000000 0.295298
v 0.923880 1.898601 0.382683
v 0.641604 -1.000000 0.428706
v 0.831470 1.898601 0.555570
v 0.545639 -1.000000 0.545639
v 0.707107 1.898601 0.707107
v 0.428706 -1.000000 0.641604
v 0.555570 1.898601 0.831470
v 0.295298 -1.000000 0.712912
v 0.382683 1.898601 0.923880
v 0.150542 -1.000000 0.756823
v 0.195090 1.898601 0.980785
v 0.000000 -1.000000 0.771651
v 0.000000 1.898601 1.000000
v -0.150542 -1.000000 0.756823
v -0.195090 1.898601 0.980785
v -0.295298 -1.000000 0.712912
v -0.382683 1.898601 0.923880
v -0.428706 -1.000000 0.641604
v -0.555570 1.898601 0.831470
v -0.545639 -1.000000 0.545639
v -0.707107 1.898601 0.707107
v -0.641604 -1.000000 0.428706
v -0.831470 1.898601 0.555570
v -0.712912 -1.000000 0.295298
v -0.923880 1.898601 0.382683
v -0.756823 -1.000000 0.150542
v -0.980785 1.898601 0.195090
v -0.771651 -1.000000 -0.000000
v -1.000000 1.898601 0.000000
v -0.756823 -1.000000 -0.150542
v -0.980785 1.898601 -0.195090
v -0.712912 -1.000000 -0.295298
v -0.923880 1.898601 -0.382683
v -0.641604 -1.000000 -0.428706
v -0.831470 1.898601 -0.555570
v -0.545639 -1.000000 -0.545639
v -0.707107 1.898601 -0.707107
v -0.428706 -1.000000 -0.641604
v -0.555570 1.898601 -0.831470
v -0.295298 -1.000000 -0.712912
v -0.382683 1.898601 -0.923880
v -0.150542 -1.000000 -0.756823
v -0.195090 1.898601 -0.980785
v 1.022066 1.898601 1.076639
v 1.016534 1.898601 1.094876
v 1.007550 1.898601 1.111684
v 0.995460 1.898601 1.126416
v 0.980728 1.898601 1.138506
v 0.963921 1.898601 1.147489
v 0.945684 1.898601 1.153022
v 0.926718 1.898601 1.154890
vn -0.0000 -0.7138 -0.7004
vn -0.0000 0.6567 -0.7541
vn 0.1366 -0.7138 -0.6869
vn 0.1471 0.6567 -0.7397
vn 0.2680 -0.7138 -0.6471
vn 0.2886 0.6567 -0.6967
vn 0.3891 -0.7138 -0.5823
vn 0.4190 0.6567 -0.6270
vn 0.4952 -0.7138 -0.4952
vn 0.5333 0.6567 -0.5333
vn 0.5823 -0.7138 -0.3891
vn 0.6270 0.6567 -0.4190
vn 0.6471 -0.7138 -0.2680
vn 0.6967 0.6567 -0.2886
vn 0.6869 -0.7138 -0.1366
vn 0.7397 0.6567 -0.1471
vn 0.7004 -0.7138 -0.0000
vn 0.7541 0.6567 -0.0000
vn 0.6869 -0.7138 0.1366
vn 0.7002 0.7002 0.1393
vn 0.6471 -0.7138 0.2680
vn 0.4221 0.8895 0.1748
vn 0.5823 -0.7138 0.3891
vn 0.3799 0.8895 0.2538
vn 0.4952 -0.7138 0.4952
vn 0.3231 0.8895 0.3231
vn 0.3891 -0.7138 0.5823
vn 0.2538 0.8895 0.3799
vn 0.2680 -0.7138 0.6471
vn 0.1748 0.8895 0.4221
vn 0.1366 -0.7138 0.6869
vn 0.0891 0.8895 0.4481
vn -0.0000 -0.7138 0.7004
vn -0.0000 0.6910 0.7229
vn -0.1366 -0.7138 0.6869
vn -0.1471 0.6567 0.7397
vn -0.2680 -0.7138 0.6471
vn -0.2886 0.6567 0.6967
vn -0.3891 -0.7138 0.5823
vn -0.4190 0.6567 0.6270
vn -0.4952 -0.7138 0.4952
vn -0.5333 0.6567 0.5333
vn -0.5823 -0.7138 0.3891
vn -0.6270 0.6567 0.4190
vn -0.6471 -0.7138 0.2680
vn -0.6967 0.6567 0.2886
vn -0.6869 -0.7138 0.1366
vn -0.7397 0.6567 0.1471
vn -0.7004 -0.7138 -0.0000
vn -0.7541 0.6567 -0.0000
vn -0.6869 -0.7138 -0.1366
vn -0.7397 0.6567 -0.1471
vn -0.6471 -0.7138 -0.2680
vn -0.6967 0.6567 -0.2886
vn -0.5823 -0.7138 -0.3891
vn -0.6270 0.6567 -0.4190
vn -0.4952 -0.7138 -0.4952
vn -0.5333 0.6567 -0.5333
vn -0.3891 -0.7138 -0.5823
vn -0.4190 0.6567 -0.6270
vn -0.2680 -0.7138 -0.6471
vn -0.2886 0.6567 -0.6967
vn -0.1366 -0.7138 -0.6869
vn -0.1471 0.6567 -0.7397
vn -0.0000 1.0000 -0.0000
vt 0.837315 0.004493
vt 0.834169 0.579502
vt 0.801998 0.579310
vt 0.805144 0.004301
vt 0.773045 0.579138
vt 0.776192 0.004129
vt 0.748423 0.578991
vt 0.751569 0.003982
vt 0.751569 0.003982
vt 0.719470 0.578818
vt 0.722616 0.003809
vt 0.687299 0.578627
vt 0.690445 0.003618
vt 0.653147 0.578423
vt 0.656293 0.003414
vt 0.618325 0.578215
vt 0.621472 0.003207
vt 0.584173 0.578012
vt 0.587319 0.003003
vt 0.552002 0.577820
vt 0.555149 0.002811
vt 0.523049 0.577647
vt 0.526196 0.002639
vt 0.498427 0.577501
vt 0.501573 0.002492
vt 0.501573 0.002492
vt 0.498427 0.577501
vt 0.469474 0.577328
vt 0.472620 0.002319
vt 0.437303 0.577136
vt 0.440449 0.002127
vt 0.403151 0.576933
vt 0.406297 0.001924
vt 0.368329 0.576725
vt 0.371476 0.001716
vt 0.334177 0.576522
vt 0.337323 0.001513
vt 0.302006 0.576330
vt 0.305153 0.001321
vt 0.273053 0.576157
vt 0.276200 0.001148
vt 0.248431 0.576011
vt 0.251577 0.001002
vt 0.219478 0.575838
vt 0.222624 0.000829
vt 0.187307 0.575646
vt 0.190454 0.000637
vt 0.153155 0.575443
vt 0.156301 0.000434
vt 0.118333 0.575235
vt 0.121480 0.000226
vt 0.084181 0.575031
vt 0.087328 0.000023
vt 0.052010 0.574840
vt 0.055157 -0.000169
vt 0.023057 0.574667
vt 0.026204 -0.000342
vt -0.001565 0.574520
vt 0.001581 -0.000489
vt 1.001565 0.005472
vt 0.998419 0.580481
vt 0.969466 0.580309
vt 0.972612 0.005300
vt 0.937295 0.580117
vt 0.940441 0.005108
vt 0.903143 0.579913
vt 0.906289 0.004904
vt 0.469818 0.755916
vt 0.469818 0.797927
vt 0.461622 0.839131
vt 0.445545 0.877945
vt 0.422205 0.912876
vt 0.392499 0.942582
vt 0.357568 0.965922
vt 0.318754 0.981999
vt 0.277550 0.990195
vt 0.235539 0.990195
vt 0.194335 0.981999
vt 0.155522 0.965922
vt 0.120591 0.942582
vt 0.090885 0.912875
vt 0.067545 0.877945
vt 0.051468 0.839131
vt 0.043272 0.797927
vt 0.043272 0.755916
vt 0.051468 0.714712
vt 0.067545 0.675899
vt 0.090885 0.640968
vt 0.120591 0.611262
vt 0.155522 0.587922
vt 0.194335 0.571845
vt 0.235539 0.563649
vt 0.277550 0.563649
vt 0.318754 0.571845
vt 0.357568 0.587922
vt 0.392499 0.611262
vt 0.422205 0.640968
vt 0.445545 0.675899
vt 0.461622 0.714712
vt 0.868321 0.579706
vt 0.871468 0.004697
vt 0.896364 0.797927
vt 0.888168 0.839131
vt 0.872091 0.877945
vt 0.848751 0.912876
vt 0.819045 0.942582
vt 0.784114 0.965922
vt 0.745301 0.981999
vt 0.704097 0.990195
vt 0.662086 0.990195
vt 0.620882 0.981999
vt 0.582068 0.965922
vt 0.547137 0.942582
vt 0.517431 0.912875
vt 0.494091 0.877945
vt 0.478014 0.839131
vt 0.469818 0.797927
vt 0.469818 0.755916
vt 0.478014 0.714712
vt 0.494091 0.675899
vt 0.517431 0.640968
vt 0.547137 0.611262
vt 0.582069 0.587922
vt 0.620882 0.571845
vt 0.662086 0.563649
vt 0.704097 0.563649
vt 0.745301 0.571845
vt 0.784114 0.587922
vt 0.819045 0.611262
vt 0.848751 0.640968
vt 0.872091 0.675899
vt 0.888168 0.714712
vt 0.896364 0.755916
s 1
usemtl Smetana_mat
f 1/1/1 2/2/2 4/3/4 3/4/3
f 3/4/3 4/3/4 6/5/6 5/6/5
f 5/6/5 6/5/6 8/7/8 7/8/7
f 7/9/7 8/7/8 10/10/10 9/11/9
f 9/11/9 10/10/10 12/12/12 11/13/11
f 11/13/11 12/12/12 14/14/14 13/15/13
f 13/15/13 14/14/14 16/16/16 15/17/15
f 15/17/15 16/16/16 18/18/18 17/19/17
f 17/19/17 18/18/18 20/20/20 19/21/19
f 19/21/19 20/20/20 22/22/22 21/23/21
f 21/23/21 22/22/22 24/24/24 23/25/23
f 23/26/23 24/27/24 26/28/26 25/29/25
f 25/29/25 26/28/26 28/30/28 27/31/27
f 27/31/27 28/30/28 30/32/30 29/33/29
f 29/33/29 30/32/30 32/34/32 31/35/31
f 31/35/31 32/34/32 34/36/34 33/37/33
f 33/37/33 34/36/34 36/38/36 35/39/35
f 35/39/35 36/38/36 38/40/38 37/41/37
f 37/41/37 38/40/38 40/42/40 39/43/39
f 39/43/39 40/42/40 42/44/42 41/45/41
f 41/45/41 42/44/42 44/46/44 43/47/43
f 43/47/43 44/46/44 46/48/46 45/49/45
f 45/49/45 46/48/46 48/50/48 47/51/47
f 47/51/47 48/50/48 50/52/50 49/53/49
f 49/53/49 50/52/50 52/54/52 51/55/51
f 51/55/51 52/54/52 54/56/54 53/57/53
f 53/57/53 54/56/54 56/58/56 55/59/55
f 55/60/55 56/61/56 58/62/58 57/63/57
f 57/63/57 58/62/58 60/64/60 59/65/59
f 59/65/59 60/64/60 62/66/62 61/67/61
f 4/68/4 2/69/2 64/70/64 62/71/62 60/72/60 58/73/58 56/74/56 54/75/54 52/76/52 50/77/50 48/78/48 46/79/46 44/80/44 42/81/42 40/82/40 38/83/38 36/84/36 34/85/34 32/86/32 30/87/30 28/88/28 26/89/26 24/90/24 22/91/22 20/92/20 18/93/18 16/94/16 14/95/14 12/96/12 10/97/10 8/98/8 6/99/6
f 61/67/61 62/66/62 64/100/64 63/101/63
f 63/101/63 64/100/64 2/2/2 1/1/1
f 1/102/1 3/103/3 5/104/5 7/105/7 9/106/9 11/107/11 13/108/13 15/109/15 17/110/17 19/111/19 21/112/21 23/113/23 25/114/25 27/115/27 29/116/29 31/117/31 33/118/33 35/119/35 37/120/37 39/121/39 41/122/41 43/123/43 45/124/45 47/125/47 49/126/49 51/127/51 53/128/53 55/129/55 57/130/57 59/131/59 61/132/61 63/133/63
f 26/28/26 28/30/28 69/30/65 68/28/65
f 32/34/32 34/36/34 72/36/65 71/34/65
f 22/22/22 24/24/24 67/24/65 66/22/65
f 28/30/28 30/32/30 70/32/65 69/30/65
f 24/27/24 26/28/26 68/28/65 67/27/65
f 30/32/30 32/34/32 71/34/65 70/32/65
f 20/20/20 22/22/22 66/22/65 65/20/65
